ubuntu(1.0)/mycpu.vcd
$date
	Sat Feb 25 11:25:48 2017
$end
$version
	Icarus Verilog
$end
$timescale
	1ps
$end
$scope module cpu_tb $end
$var wire 32 ! a0 [31:0] $end
$var reg 1 " clk $end
$var integer 32 # k [31:0] $end
$scope module DUT $end
$var wire 1 $ BRANCH $end
$var wire 1 % CLK $end
$var wire 4 & D_ALUControl [3:0] $end
$var wire 1 ' D_ALUSrc $end
$var wire 1 ( D_ERs $end
$var wire 1 ) D_ERt $end
$var wire 32 * D_I [31:0] $end
$var wire 1 + D_MRs $end
$var wire 1 , D_MRt $end
$var wire 1 - D_MemWrite $end
$var wire 1 . D_MemtoReg $end
$var wire 32 / D_R1 [31:0] $end
$var wire 32 0 D_R2 [31:0] $end
$var wire 5 1 D_RW [4:0] $end
$var wire 1 2 D_RegDst $end
$var wire 1 3 D_RegWrite $end
$var wire 1 4 D_beq $end
$var wire 1 5 D_bgtz $end
$var wire 1 6 D_bne $end
$var wire 1 7 D_eret $end
$var wire 32 8 D_imm [31:0] $end
$var wire 1 9 D_j $end
$var wire 1 : D_jal $end
$var wire 1 ; D_jr $end
$var wire 1 < D_lw $end
$var wire 1 = D_mfc0 $end
$var wire 1 > D_mtc0 $end
$var wire 32 ? D_offset [31:0] $end
$var wire 32 @ D_pc_4 [31:0] $end
$var wire 1 A D_sel1 $end
$var wire 1 B D_sel2 $end
$var wire 1 C D_sh $end
$var wire 32 D D_shamt [31:0] $end
$var wire 1 E D_shift $end
$var wire 1 F D_srav $end
$var wire 1 G D_syscall $end
$var wire 4 H E_ALUCTR [3:0] $end
$var wire 1 I E_ALUSrc $end
$var wire 1 J E_ERs $end
$var wire 1 K E_ERt $end
$var wire 1 L E_MRs $end
$var wire 1 M E_MRt $end
$var wire 1 N E_MemWrite $end
$var wire 1 O E_MemtoReg $end
$var wire 32 P E_R [31:0] $end
$var wire 32 Q E_R1 [31:0] $end
$var wire 32 R E_R2 [31:0] $end
$var wire 5 S E_RW [4:0] $end
$var wire 32 T E_R_2 [31:0] $end
$var wire 1 U E_RegWrite $end
$var wire 32 V E_addr [31:0] $end
$var wire 1 W E_beq $end
$var wire 1 X E_bgtz $end
$var wire 1 Y E_bne $end
$var wire 32 Z E_imm [31:0] $end
$var wire 1 [ E_j $end
$var wire 1 \ E_jal $end
$var wire 1 ] E_jr $end
$var wire 1 ^ E_lw $end
$var wire 1 _ E_mfc0 $end
$var wire 32 ` E_offset [31:0] $end
$var wire 32 a E_pc_4 [31:0] $end
$var wire 1 b E_sel1 $end
$var wire 1 c E_sel2 $end
$var wire 1 d E_sh $end
$var wire 32 e E_shamt [31:0] $end
$var wire 1 f E_shift $end
$var wire 1 g E_syscall $end
$var wire 1 h Equal $end
$var wire 1 i LOADUSE $end
$var wire 32 j M_D [31:0] $end
$var wire 1 k M_MemWrite $end
$var wire 1 l M_MemtoReg $end
$var wire 32 m M_R [31:0] $end
$var wire 32 n M_R2 [31:0] $end
$var wire 5 o M_RW [4:0] $end
$var wire 1 p M_RegWrite $end
$var wire 1 q M_jal $end
$var wire 1 r M_mfc0 $end
$var wire 32 s M_pc_4 [31:0] $end
$var wire 1 t M_sh $end
$var wire 1 u M_syscall $end
$var wire 1 v OF $end
$var wire 1 w UOF $end
$var wire 32 x W_D [31:0] $end
$var wire 5 y W_RW [4:0] $end
$var wire 1 z W_RegWrite $end
$var wire 1 { W_jal $end
$var wire 1 | W_mfc0 $end
$var wire 32 } W_pc_4 [31:0] $end
$var wire 32 ~ X [31:0] $end
$var wire 32 !" Y [31:0] $end
$var wire 32 "" a0 [31:0] $end
$var wire 32 #" a0_out [31:0] $end
$var wire 1 $" branch $end
$var wire 1 %" clk $end
$var wire 1 &" halt $end
$var wire 32 '" pc [31:0] $end
$var wire 32 (" pc_4 [31:0] $end
$var wire 1 )" pc_en $end
$var wire 32 *" pc_next [31:0] $end
$var wire 1 +" r_a0_en $end
$var wire 32 ," ram_din [31:0] $end
$var wire 32 -" ram_out [31:0] $end
$var wire 1 ." readRs $end
$var wire 1 /" readRt $end
$var wire 32 0" rf_Din [31:0] $end
$var wire 32 1" right_r1 [31:0] $end
$var wire 32 2" right_r2 [31:0] $end
$var wire 32 3" rom_out [31:0] $end
$var wire 28 4" shift_imm_26 [27:0] $end
$var wire 1 5" syscall $end
$var wire 32 6" v0 [31:0] $end
$scope module pc_reg $end
$var wire 32 7" Din [31:0] $end
$var wire 1 %" clk $end
$var wire 1 8" clr $end
$var wire 1 )" en $end
$var reg 32 9" Dout [31:0] $end
$upscope $end
$scope module u_ROM $end
$var wire 32 :" dout [31:0] $end
$var wire 10 ;" raddr [9:0] $end
$upscope $end
$scope module u_IF_ID $end
$var wire 32 <" D_I [31:0] $end
$var wire 32 =" D_pc_4 [31:0] $end
$var wire 32 >" F_I [31:0] $end
$var wire 32 ?" F_pc_4 [31:0] $end
$var wire 1 %" clk $end
$var wire 1 $ clr $end
$var wire 1 i en $end
$scope module I $end
$var wire 32 @" Din [31:0] $end
$var wire 1 %" clk $end
$var wire 1 $ clr $end
$var wire 1 A" en $end
$var reg 32 B" Dout [31:0] $end
$upscope $end
$scope module pc_4 $end
$var wire 32 C" Din [31:0] $end
$var wire 1 %" clk $end
$var wire 1 $ clr $end
$var wire 1 D" en $end
$var reg 32 E" Dout [31:0] $end
$upscope $end
$upscope $end
$scope module u_controlunit $end
$var wire 4 F" ALUControl [3:0] $end
$var wire 1 ' ALUSrc $end
$var wire 1 - MemWrite $end
$var wire 1 . MemtoReg $end
$var wire 1 2 RegDst $end
$var wire 1 3 RegWrite $end
$var wire 1 G" add $end
$var wire 1 H" addi $end
$var wire 1 I" addiu $end
$var wire 1 J" addu $end
$var wire 1 K" and_ $end
$var wire 1 L" andi $end
$var wire 1 4 beq $end
$var wire 1 5 bgtz $end
$var wire 1 6 bne $end
$var wire 1 7 eret $end
$var wire 6 M" funct [5:0] $end
$var wire 1 9 j $end
$var wire 1 N" j_ $end
$var wire 1 : jal $end
$var wire 1 ; jr $end
$var wire 1 < lw $end
$var wire 1 = mfc0 $end
$var wire 1 > mtc0 $end
$var wire 1 O" nor_ $end
$var wire 6 P" op [5:0] $end
$var wire 1 Q" or_ $end
$var wire 1 R" ori $end
$var wire 1 ." readRs $end
$var wire 1 /" readRt $end
$var wire 5 S" rs [4:0] $end
$var wire 1 A sel1 $end
$var wire 1 B sel2 $end
$var wire 1 C sh $end
$var wire 1 E shift $end
$var wire 1 T" sll $end
$var wire 1 U" slt $end
$var wire 1 V" slti $end
$var wire 1 W" sltu $end
$var wire 1 X" sra $end
$var wire 1 F srav $end
$var wire 1 Y" srl $end
$var wire 1 Z" sub $end
$var wire 1 [" sw $end
$var wire 1 G syscall $end
$var wire 1 \" xor_ $end
$upscope $end
$scope module u_regfile $end
$var wire 32 ]" Din [31:0] $end
$var wire 32 ^" R1 [31:0] $end
$var wire 5 _" R1_ [4:0] $end
$var wire 32 `" R2 [31:0] $end
$var wire 5 a" R2_ [4:0] $end
$var wire 5 b" RW [4:0] $end
$var wire 1 z WE $end
$var wire 32 c" a0 [31:0] $end
$var wire 1 %" clk $end
$var wire 32 d" v0 [31:0] $end
$var integer 32 e" k [31:0] $end
$upscope $end
$scope module u_ID_EX $end
$var wire 4 f" D_ALUCTR [3:0] $end
$var wire 1 ' D_ALUSrc $end
$var wire 1 ( D_ERs $end
$var wire 1 ) D_ERt $end
$var wire 1 + D_MRs $end
$var wire 1 , D_MRt $end
$var wire 1 - D_MemWrite $end
$var wire 1 . D_MemtoReg $end
$var wire 32 g" D_R1 [31:0] $end
$var wire 32 h" D_R2 [31:0] $end
$var wire 5 i" D_RW [4:0] $end
$var wire 1 3 D_RegWrite $end
$var wire 1 4 D_beq $end
$var wire 1 5 D_bgtz $end
$var wire 1 6 D_bne $end
$var wire 32 j" D_imm [31:0] $end
$var wire 1 9 D_j $end
$var wire 1 : D_jal $end
$var wire 1 ; D_jr $end
$var wire 1 < D_lw $end
$var wire 1 = D_mfc0 $end
$var wire 32 k" D_offset [31:0] $end
$var wire 32 l" D_pc_4 [31:0] $end
$var wire 1 A D_sel1 $end
$var wire 1 B D_sel2 $end
$var wire 1 C D_sh $end
$var wire 32 m" D_shamt [31:0] $end
$var wire 1 E D_shift $end
$var wire 1 G D_syscall $end
$var wire 4 n" E_ALUCTR [3:0] $end
$var wire 1 I E_ALUSrc $end
$var wire 1 J E_ERs $end
$var wire 1 K E_ERt $end
$var wire 1 L E_MRs $end
$var wire 1 M E_MRt $end
$var wire 1 N E_MemWrite $end
$var wire 1 O E_MemtoReg $end
$var wire 32 o" E_R1 [31:0] $end
$var wire 32 p" E_R2 [31:0] $end
$var wire 5 q" E_RW [4:0] $end
$var wire 1 U E_RegWrite $end
$var wire 1 W E_beq $end
$var wire 1 X E_bgtz $end
$var wire 1 Y E_bne $end
$var wire 32 r" E_imm [31:0] $end
$var wire 1 [ E_j $end
$var wire 1 \ E_jal $end
$var wire 1 ] E_jr $end
$var wire 1 ^ E_lw $end
$var wire 1 _ E_mfc0 $end
$var wire 32 s" E_offset [31:0] $end
$var wire 32 t" E_pc_4 [31:0] $end
$var wire 1 b E_sel1 $end
$var wire 1 c E_sel2 $end
$var wire 1 d E_sh $end
$var wire 32 u" E_shamt [31:0] $end
$var wire 1 f E_shift $end
$var wire 1 g E_syscall $end
$var wire 1 %" clk $end
$var wire 1 v" clr $end
$scope module R1 $end
$var wire 32 w" Din [31:0] $end
$var wire 1 %" clk $end
$var wire 1 v" clr $end
$var wire 1 x" en $end
$var reg 32 y" Dout [31:0] $end
$upscope $end
$scope module R2 $end
$var wire 32 z" Din [31:0] $end
$var wire 1 %" clk $end
$var wire 1 v" clr $end
$var wire 1 {" en $end
$var reg 32 |" Dout [31:0] $end
$upscope $end
$scope module shamt $end
$var wire 32 }" Din [31:0] $end
$var wire 1 %" clk $end
$var wire 1 v" clr $end
$var wire 1 ~" en $end
$var reg 32 !# Dout [31:0] $end
$upscope $end
$scope module imm $end
$var wire 32 "# Din [31:0] $end
$var wire 1 %" clk $end
$var wire 1 v" clr $end
$var wire 1 ## en $end
$var reg 32 $# Dout [31:0] $end
$upscope $end
$scope module pc_4 $end
$var wire 32 %# Din [31:0] $end
$var wire 1 %" clk $end
$var wire 1 v" clr $end
$var wire 1 &# en $end
$var reg 32 '# Dout [31:0] $end
$upscope $end
$scope module offset $end
$var wire 32 (# Din [31:0] $end
$var wire 1 %" clk $end
$var wire 1 v" clr $end
$var wire 1 )# en $end
$var reg 32 *# Dout [31:0] $end
$upscope $end
$scope module ALUCTR $end
$var wire 4 +# Din [3:0] $end
$var wire 1 %" clk $end
$var wire 1 v" clr $end
$var wire 1 ,# en $end
$var reg 4 -# Dout [3:0] $end
$upscope $end
$scope module RW $end
$var wire 5 .# Din [4:0] $end
$var wire 1 %" clk $end
$var wire 1 v" clr $end
$var wire 1 /# en $end
$var reg 5 0# Dout [4:0] $end
$upscope $end
$scope module j $end
$var wire 1 9 Din $end
$var wire 1 %" clk $end
$var wire 1 v" clr $end
$var wire 1 1# en $end
$var reg 1 2# Dout $end
$upscope $end
$scope module jal $end
$var wire 1 : Din $end
$var wire 1 %" clk $end
$var wire 1 v" clr $end
$var wire 1 3# en $end
$var reg 1 4# Dout $end
$upscope $end
$scope module MemtoReg $end
$var wire 1 . Din $end
$var wire 1 %" clk $end
$var wire 1 v" clr $end
$var wire 1 5# en $end
$var reg 1 6# Dout $end
$upscope $end
$scope module MemWrite $end
$var wire 1 - Din $end
$var wire 1 %" clk $end
$var wire 1 v" clr $end
$var wire 1 7# en $end
$var reg 1 8# Dout $end
$upscope $end
$scope module beq $end
$var wire 1 4 Din $end
$var wire 1 %" clk $end
$var wire 1 v" clr $end
$var wire 1 9# en $end
$var reg 1 :# Dout $end
$upscope $end
$scope module bne $end
$var wire 1 6 Din $end
$var wire 1 %" clk $end
$var wire 1 v" clr $end
$var wire 1 ;# en $end
$var reg 1 <# Dout $end
$upscope $end
$scope module bgtz $end
$var wire 1 5 Din $end
$var wire 1 %" clk $end
$var wire 1 v" clr $end
$var wire 1 =# en $end
$var reg 1 ># Dout $end
$upscope $end
$scope module sh $end
$var wire 1 C Din $end
$var wire 1 %" clk $end
$var wire 1 v" clr $end
$var wire 1 ?# en $end
$var reg 1 @# Dout $end
$upscope $end
$scope module RegWrite $end
$var wire 1 3 Din $end
$var wire 1 %" clk $end
$var wire 1 v" clr $end
$var wire 1 A# en $end
$var reg 1 B# Dout $end
$upscope $end
$scope module syscall $end
$var wire 1 G Din $end
$var wire 1 %" clk $end
$var wire 1 v" clr $end
$var wire 1 C# en $end
$var reg 1 D# Dout $end
$upscope $end
$scope module shift $end
$var wire 1 E Din $end
$var wire 1 %" clk $end
$var wire 1 v" clr $end
$var wire 1 E# en $end
$var reg 1 F# Dout $end
$upscope $end
$scope module ALUSrc $end
$var wire 1 ' Din $end
$var wire 1 %" clk $end
$var wire 1 v" clr $end
$var wire 1 G# en $end
$var reg 1 H# Dout $end
$upscope $end
$scope module mfc0 $end
$var wire 1 = Din $end
$var wire 1 %" clk $end
$var wire 1 v" clr $end
$var wire 1 I# en $end
$var reg 1 J# Dout $end
$upscope $end
$scope module sel1 $end
$var wire 1 A Din $end
$var wire 1 %" clk $end
$var wire 1 v" clr $end
$var wire 1 K# en $end
$var reg 1 L# Dout $end
$upscope $end
$scope module sel2 $end
$var wire 1 B Din $end
$var wire 1 %" clk $end
$var wire 1 v" clr $end
$var wire 1 M# en $end
$var reg 1 N# Dout $end
$upscope $end
$scope module ERs $end
$var wire 1 ( Din $end
$var wire 1 %" clk $end
$var wire 1 v" clr $end
$var wire 1 O# en $end
$var reg 1 P# Dout $end
$upscope $end
$scope module ERt $end
$var wire 1 ) Din $end
$var wire 1 %" clk $end
$var wire 1 v" clr $end
$var wire 1 Q# en $end
$var reg 1 R# Dout $end
$upscope $end
$scope module MRs $end
$var wire 1 + Din $end
$var wire 1 %" clk $end
$var wire 1 v" clr $end
$var wire 1 S# en $end
$var reg 1 T# Dout $end
$upscope $end
$scope module MRt $end
$var wire 1 , Din $end
$var wire 1 %" clk $end
$var wire 1 v" clr $end
$var wire 1 U# en $end
$var reg 1 V# Dout $end
$upscope $end
$scope module jr $end
$var wire 1 ; Din $end
$var wire 1 %" clk $end
$var wire 1 v" clr $end
$var wire 1 W# en $end
$var reg 1 X# Dout $end
$upscope $end
$scope module lw $end
$var wire 1 < Din $end
$var wire 1 %" clk $end
$var wire 1 v" clr $end
$var wire 1 Y# en $end
$var reg 1 Z# Dout $end
$upscope $end
$upscope $end
$scope module u_ALU $end
$var wire 1 h Equal $end
$var wire 4 [# S [3:0] $end
$var wire 32 \# X [31:0] $end
$var wire 32 ]# Y [31:0] $end
$var reg 1 ^# OF $end
$var reg 32 _# Result [31:0] $end
$var reg 32 `# Result2 [31:0] $end
$var reg 1 a# UOF $end
$var reg 1 b# sf $end
$upscope $end
$scope module u_EX_MEM $end
$var wire 1 N E_MemWrite $end
$var wire 1 O E_MemtoReg $end
$var wire 32 c# E_R [31:0] $end
$var wire 32 d# E_R2 [31:0] $end
$var wire 5 e# E_RW [4:0] $end
$var wire 1 U E_RegWrite $end
$var wire 1 \ E_jal $end
$var wire 1 _ E_mfc0 $end
$var wire 32 f# E_pc_4 [31:0] $end
$var wire 1 d E_sh $end
$var wire 1 g E_syscall $end
$var wire 1 k M_MemWrite $end
$var wire 1 l M_MemtoReg $end
$var wire 32 g# M_R [31:0] $end
$var wire 32 h# M_R2 [31:0] $end
$var wire 5 i# M_RW [4:0] $end
$var wire 1 p M_RegWrite $end
$var wire 1 q M_jal $end
$var wire 1 r M_mfc0 $end
$var wire 32 j# M_pc_4 [31:0] $end
$var wire 1 t M_sh $end
$var wire 1 u M_syscall $end
$var wire 1 %" clk $end
$scope module R2 $end
$var wire 32 k# Din [31:0] $end
$var wire 1 %" clk $end
$var wire 1 l# clr $end
$var wire 1 m# en $end
$var reg 32 n# Dout [31:0] $end
$upscope $end
$scope module R $end
$var wire 32 o# Din [31:0] $end
$var wire 1 %" clk $end
$var wire 1 p# clr $end
$var wire 1 q# en $end
$var reg 32 r# Dout [31:0] $end
$upscope $end
$scope module pc_4 $end
$var wire 32 s# Din [31:0] $end
$var wire 1 %" clk $end
$var wire 1 t# clr $end
$var wire 1 u# en $end
$var reg 32 v# Dout [31:0] $end
$upscope $end
$scope module RW $end
$var wire 5 w# Din [4:0] $end
$var wire 1 %" clk $end
$var wire 1 x# clr $end
$var wire 1 y# en $end
$var reg 5 z# Dout [4:0] $end
$upscope $end
$scope module jal $end
$var wire 1 \ Din $end
$var wire 1 %" clk $end
$var wire 1 {# clr $end
$var wire 1 |# en $end
$var reg 1 }# Dout $end
$upscope $end
$scope module MemtoReg $end
$var wire 1 O Din $end
$var wire 1 %" clk $end
$var wire 1 ~# clr $end
$var wire 1 !$ en $end
$var reg 1 "$ Dout $end
$upscope $end
$scope module MemWrite $end
$var wire 1 N Din $end
$var wire 1 %" clk $end
$var wire 1 #$ clr $end
$var wire 1 $$ en $end
$var reg 1 %$ Dout $end
$upscope $end
$scope module sh $end
$var wire 1 d Din $end
$var wire 1 %" clk $end
$var wire 1 &$ clr $end
$var wire 1 '$ en $end
$var reg 1 ($ Dout $end
$upscope $end
$scope module RegWrite $end
$var wire 1 U Din $end
$var wire 1 %" clk $end
$var wire 1 )$ clr $end
$var wire 1 *$ en $end
$var reg 1 +$ Dout $end
$upscope $end
$scope module syscall $end
$var wire 1 g Din $end
$var wire 1 %" clk $end
$var wire 1 ,$ clr $end
$var wire 1 -$ en $end
$var reg 1 .$ Dout $end
$upscope $end
$scope module mfc0 $end
$var wire 1 _ Din $end
$var wire 1 %" clk $end
$var wire 1 /$ clr $end
$var wire 1 0$ en $end
$var reg 1 1$ Dout $end
$upscope $end
$upscope $end
$scope module u_RAM $end
$var wire 10 2$ addr [9:0] $end
$var wire 1 %" clk $end
$var wire 32 3$ din [31:0] $end
$var wire 32 4$ dout [31:0] $end
$var wire 1 k we $end
$var integer 32 5$ k [31:0] $end
$upscope $end
$scope module u_MEM_WB $end
$var wire 32 6$ M_D [31:0] $end
$var wire 5 7$ M_RW [4:0] $end
$var wire 1 p M_RegWrite $end
$var wire 1 q M_jal $end
$var wire 1 r M_mfc0 $end
$var wire 32 8$ M_pc_4 [31:0] $end
$var wire 1 u M_syscall $end
$var wire 32 9$ W_D [31:0] $end
$var wire 5 :$ W_RW [4:0] $end
$var wire 1 z W_RegWrite $end
$var wire 1 { W_jal $end
$var wire 1 | W_mfc0 $end
$var wire 32 ;$ W_pc_4 [31:0] $end
$var wire 1 %" clk $end
$var wire 1 5" syscall $end
$scope module D $end
$var wire 32 <$ Din [31:0] $end
$var wire 1 %" clk $end
$var wire 1 =$ clr $end
$var wire 1 >$ en $end
$var reg 32 ?$ Dout [31:0] $end
$upscope $end
$scope module pc_4 $end
$var wire 32 @$ Din [31:0] $end
$var wire 1 %" clk $end
$var wire 1 A$ clr $end
$var wire 1 B$ en $end
$var reg 32 C$ Dout [31:0] $end
$upscope $end
$scope module RW $end
$var wire 5 D$ Din [4:0] $end
$var wire 1 %" clk $end
$var wire 1 E$ clr $end
$var wire 1 F$ en $end
$var reg 5 G$ Dout [4:0] $end
$upscope $end
$scope module jal $end
$var wire 1 q Din $end
$var wire 1 %" clk $end
$var wire 1 H$ clr $end
$var wire 1 I$ en $end
$var reg 1 J$ Dout $end
$upscope $end
$scope module RegWrite $end
$var wire 1 p Din $end
$var wire 1 %" clk $end
$var wire 1 K$ clr $end
$var wire 1 L$ en $end
$var reg 1 M$ Dout $end
$upscope $end
$scope module syscall0 $end
$var wire 1 u Din $end
$var wire 1 %" clk $end
$var wire 1 N$ clr $end
$var wire 1 O$ en $end
$var reg 1 P$ Dout $end
$upscope $end
$scope module mfc0 $end
$var wire 1 r Din $end
$var wire 1 %" clk $end
$var wire 1 Q$ clr $end
$var wire 1 R$ en $end
$var reg 1 S$ Dout $end
$upscope $end
$upscope $end
$scope module u_hazard $end
$var wire 1 $ BRANCH $end
$var wire 5 T$ E_RW [4:0] $end
$var wire 1 U E_RegWrite $end
$var wire 1 ( E_Rs $end
$var wire 1 U$ E_Rs_equal $end
$var wire 1 ) E_Rt $end
$var wire 1 V$ E_Rt_equal $end
$var wire 1 [ E_j $end
$var wire 1 ] E_jr $end
$var wire 1 ^ E_lw $end
$var wire 1 i LOADUSE $end
$var wire 5 W$ M_RW [4:0] $end
$var wire 1 p M_RegWrite $end
$var wire 1 + M_Rs $end
$var wire 1 X$ M_Rs_equal $end
$var wire 1 , M_Rt $end
$var wire 1 Y$ M_Rt_equal $end
$var wire 5 Z$ Rs [4:0] $end
$var wire 5 [$ Rt [4:0] $end
$var wire 1 $" branch $end
$var wire 1 \$ branch0 $end
$var wire 1 %" clk $end
$var wire 1 ]$ loaduse0 $end
$var wire 1 ." read_Rs $end
$var wire 1 /" read_Rt $end
$var wire 1 ^$ zero_Rs_equal $end
$var wire 1 _$ zero_Rt_equal $end
$scope module r_loaduse $end
$var wire 1 ]$ Din $end
$var wire 1 %" clk $end
$var wire 1 `$ clr $end
$var wire 1 a$ en $end
$var reg 1 b$ Dout $end
$upscope $end
$scope module r_branch $end
$var wire 1 \$ Din $end
$var wire 1 %" clk $end
$var wire 1 c$ clr $end
$var wire 1 d$ en $end
$var reg 1 e$ Dout $end
$upscope $end
$upscope $end
$scope module u_rega0 $end
$var wire 32 f$ Din [31:0] $end
$var wire 1 %" clk $end
$var wire 1 g$ clr $end
$var wire 1 +" en $end
$var reg 32 h$ Dout [31:0] $end
$upscope $end
$upscope $end
$upscope $end
$enddefinitions $end
#0
$dumpvars
b0 h$
0g$
b0 f$
xe$
1d$
0c$
xb$
1a$
0`$
1_$
1^$
0]$
0\$
b0 [$
b0 Z$
1Y$
1X$
b0 W$
1V$
1U$
b0 T$
0S$
1R$
0Q$
0P$
1O$
0N$
0M$
1L$
0K$
0J$
1I$
0H$
b0 G$
1F$
0E$
b0 D$
b0 C$
1B$
0A$
b0 @$
b0 ?$
1>$
0=$
b0 <$
b0 ;$
b0 :$
b0 9$
b0 8$
b0 7$
b0 6$
b10000000000 5$
b0 4$
b0 3$
b0 2$
01$
10$
0/$
0.$
1-$
0,$
0+$
1*$
0)$
0($
1'$
0&$
0%$
1$$
0#$
0"$
1!$
0~#
0}#
1|#
0{#
b0 z#
1y#
0x#
b0 w#
b0 v#
1u#
0t#
b0 s#
b0 r#
1q#
0p#
b0 o#
b0 n#
1m#
0l#
b0 k#
b0 j#
b0 i#
b0 h#
b0 g#
b0 f#
b0 e#
b0 d#
b0 c#
xb#
xa#
bx `#
b0 _#
x^#
b0 ]#
b0 \#
b0 [#
0Z#
1Y#
0X#
1W#
0V#
1U#
0T#
1S#
0R#
1Q#
0P#
1O#
0N#
1M#
0L#
1K#
0J#
1I#
0H#
1G#
0F#
1E#
0D#
1C#
0B#
1A#
0@#
1?#
0>#
1=#
0<#
1;#
0:#
19#
08#
17#
06#
15#
04#
13#
02#
11#
b0 0#
1/#
b0 .#
b0 -#
1,#
b0 +#
b0 *#
1)#
b0 (#
b0 '#
1&#
b0 %#
b0 $#
1##
b0 "#
b0 !#
1~"
b0 }"
b0 |"
1{"
b0 z"
b0 y"
1x"
b0 w"
xv"
b0 u"
b0 t"
b0 s"
b0 r"
b0 q"
b0 p"
b0 o"
b0 n"
b0 m"
b0 l"
b0 k"
b0 j"
b0 i"
b0 h"
b0 g"
b0 f"
b100000 e"
b0 d"
b0 c"
b0 b"
b0 a"
b0 `"
b0 _"
b0 ^"
b0 ]"
0\"
0["
0Z"
0Y"
0X"
0W"
0V"
0U"
1T"
b0 S"
0R"
0Q"
b0 P"
0O"
0N"
b0 M"
0L"
0K"
0J"
0I"
0H"
0G"
b0 F"
b0 E"
xD"
b100 C"
b0 B"
xA"
b100000000100010000000000000001 @"
b100 ?"
b100000000100010000000000000001 >"
b0 ="
b0 <"
b0 ;"
b100000000100010000000000000001 :"
b0 9"
08"
b100 7"
b0 6"
05"
b0 4"
b100000000100010000000000000001 3"
b0 2"
b0 1"
b0 0"
1/"
0."
b0 -"
b0 ,"
0+"
b100 *"
x)"
b100 ("
b0 '"
1&"
0%"
0$"
b0 #"
b0 ""
b0 !"
b0 ~
b0 }
0|
0{
0z
b0 y
b0 x
xw
xv
0u
0t
b0 s
0r
0q
0p
b0 o
b0 n
b0 m
0l
0k
b0 j
xi
1h
0g
0f
b0 e
0d
0c
0b
b0 a
b0 `
0_
0^
0]
0\
0[
b0 Z
0Y
0X
0W
b100 V
0U
bx T
b0 S
b0 R
b0 Q
b0 P
0O
0N
0M
0L
0K
0J
0I
b0 H
0G
0F
1E
b0 D
0C
0B
1A
b0 @
b0 ?
0>
0=
0<
0;
0:
09
b0 8
07
06
05
04
13
12
b0 1
b0 0
b0 /
0.
0-
0,
0+
b0 *
0)
0(
0'
b0 &
0%
x$
b0 #
0"
b0 !
$end
#5000
1B#
1U
1F#
1f
1L#
1b
1%"
b1 #
1"
1%
#10000
1)"
1D"
1A"
0v"
0e$
0$
0b$
0i
0%"
b10 #
0"
0%
#15000
1."
13
0/"
b10001 1
b10001 i"
b10001 .#
02
b101 &
b101 F"
b101 f"
b101 +#
1'
0A
0E
b1000 *"
b1000 7"
b1000 V
0_$
0V$
0Y$
1H"
0T"
b10001000000000000000100 ?
b10001000000000000000100 k"
b10001000000000000000100 (#
b10001000000000000000100 4"
b10001 [$
b10001 a"
b1 M"
b1000 P"
b1 8
b1 j"
b1 "#
b1 ;"
b1000000000000000110000000101 3"
b1000000000000000110000000101 :"
b1000000000000000110000000101 >"
b1000000000000000110000000101 @"
b1000 ("
b1000 ?"
b1000 C"
1+$
1p
b100 E"
b100 @
b100 ="
b100 l"
b100 %#
b100000000100010000000000000001 B"
b100000000100010000000000000001 *
b100000000100010000000000000001 <"
b100 9"
b100 '"
1%"
b11 #
1"
1%
#20000
0%"
b100 #
0"
0%
#25000
0a#
0w
0^#
0v
03
0."
b0 &
b0 F"
b0 f"
b0 +#
0'
b1100 *"
b1100 7"
b1100 V
19
b0 1
b0 i"
b0 .#
b1 _#
b1 P
b1 c#
b1 o#
1_$
1Y$
0H"
1N"
b11000000010100 ?
b11000000010100 k"
b11000000010100 (#
b11000000010100 4"
0h
b1 !"
b1 ]#
b10 ;"
b100000000100010000000000000001 3"
b100000000100010000000000000001 :"
b100000000100010000000000000001 >"
b100000000100010000000000000001 @"
b1100 ("
b1100 ?"
b1100 C"
b0 [$
b0 a"
b101 M"
b10 P"
b110000000101 8
b110000000101 j"
b110000000101 "#
b10000 D
b10000 m"
b10000 }"
0b#
0U$
0V$
b1000 9"
b1000 '"
b1000000000000000110000000101 B"
b1000000000000000110000000101 *
b1000000000000000110000000101 <"
b1000 E"
b1000 @
b1000 ="
b1000 l"
b1000 %#
b1 $#
b1 Z
b1 r"
b100 '#
b100 a
b100 t"
b100 f#
b100 s#
b10001000000000000000100 *#
b10001000000000000000100 `
b10001000000000000000100 s"
b101 -#
b101 H
b101 n"
b101 [#
b10001 0#
b10001 S
b10001 q"
b10001 e#
b10001 w#
b10001 T$
0F#
0f
1H#
1I
0L#
0b
1M$
1z
1%"
b101 #
1"
1%
#30000
0%"
b110 #
0"
0%
#35000
13
1."
b101 &
b101 F"
b101 f"
b101 +#
1'
1h
b0 !"
b0 ]#
09
b10001 1
b10001 i"
b10001 .#
1\$
b11000000010100 *"
b11000000010100 7"
0_$
1H"
0N"
b10001000000000000000100 ?
b10001000000000000000100 k"
b10001000000000000000100 (#
b10001000000000000000100 4"
0X$
b1 j
b1 6$
b1 <$
b11000000010100 V
1U$
b0 _#
b0 P
b0 c#
b0 o#
b10001 [$
b10001 a"
b1 M"
b1000 P"
b1 8
b1 j"
b1 "#
b0 D
b0 m"
b0 }"
b11 ;"
b100000000100100000000000000010 3"
b100000000100100000000000000010 :"
b100000000100100000000000000010 >"
b100000000100100000000000000010 @"
b10000 ("
b10000 ?"
b10000 C"
b10001 z#
b10001 o
b10001 i#
b10001 7$
b10001 D$
b10001 W$
b100 v#
b100 s
b100 j#
b100 8$
b100 @$
b1 r#
b1 m
b1 g#
0H#
0I
0B#
0U
12#
1[
b0 0#
b0 S
b0 q"
b0 e#
b0 w#
b0 T$
b0 -#
b0 H
b0 n"
b0 [#
b11000000010100 *#
b11000000010100 `
b11000000010100 s"
b1000 '#
b1000 a
b1000 t"
b1000 f#
b1000 s#
b110000000101 $#
b110000000101 Z
b110000000101 r"
b10000 !#
b10000 e
b10000 u"
b1100 E"
b1100 @
b1100 ="
b1100 l"
b1100 %#
b100000000100010000000000000001 B"
b100000000100010000000000000001 *
b100000000100010000000000000001 <"
b1100 9"
b1100 '"
1%"
b111 #
1"
1%
#40000
1v"
1e$
1$
0%"
b1000 #
0"
0%
